{
    "status": true,
    "total_reviews_comments": 596,
    "data": [
        {
            "review_id": 3520187,
            "rating": "1.0",
            "title": "Sono arrivato in ritardo e non ho fatto la visita",
            "message": "Colpa mia...colpa della applicazione che mi ha fatto scendere a 3km di distanza...colpa dei berlinesi che in un posto sterminato hanno messo un entrata introvabile e insulsa oltre che non segnalata...colpa vostra che sulla prenotazione non avete scritto nulla di più perché risultasse intellegibile...insomma il museo sarà anche interessante ma la zona è brutta senza se e senza ma...",
            "author": "Pierluigi – Italy",
            "foreignLanguage": true,
            "date": "August 25, 2018",
            "date_unformatted": {},
            "languageCode": "it",
            "traveler_type": "solo",
            "reviewerName": "Pierluigi",
            "reviewerCountry": "Italy"
        },
        {
            "review_id": 2366352,
            "rating": "1.0",
            "title": "Geht so...",
            "message": "Hätte mir mehr Infos über die Entstehung und Nutzung durchs NS Regime gewünscht... Unser Guide wirkte streckenweise etwas unmotiviert. Als absolut negativ empfand ich, dass die Tour laut Guide nicht unterbrochen werden kann. Für jemanden der Höhenangst hat, nicht so günstig. Fazit: Panikatacke...",
            "author": "Andreas – Geesthacht, Germany",
            "foreignLanguage": true,
            "date": "April 21, 2018",
            "date_unformatted": {},
            "languageCode": "de",
            "traveler_type": "couple",
            "reviewerName": "Andreas",
            "reviewerCountry": "Geesthacht, Germany"
        },
        {
            "review_id": 2038167,
            "rating": "1.0",
            "title": "",
            "message": "Es war sehr eintönig",
            "author": "Vanessa – Bielefeld, Germany",
            "foreignLanguage": true,
            "date": "February 27, 2018",
            "date_unformatted": {},
            "languageCode": "de",
            "traveler_type": "couple",
            "reviewerName": "Vanessa",
            "reviewerCountry": "Bielefeld, Germany"
        },
        {
            "review_id": 1534379,
            "rating": "1.0",
            "title": "Guide zu langweilig",
            "message": "Tolle Informatione, spannendes historisches Gelände, aber unterirdisch langeeiliger Tour -führer, der eher gelangweilt und mit ständigem äh. seinen Text runterleiherte. Außerdem war die Tour didaktisch völlig falsch angelegt. Kein Spsnnung aufgebaut, die neugierig machte. Eine Einführung, die neugierig macht auf das, was zu sehen ist, wäre besser.",
            "author": "Wolfgang – Drennhausen, Germany",
            "foreignLanguage": true,
            "date": "October 27, 2017",
            "date_unformatted": {},
            "languageCode": "de",
            "traveler_type": "couple",
            "reviewerName": "Wolfgang",
            "reviewerCountry": "Drennhausen, Germany"
        },
        {
            "review_id": 3667544,
            "rating": "2.0",
            "title": "Ok",
            "message": "The guide for me wasn’t enthusiastic. And some seating (portable chairs like in Wansee were you can carry them) wouldn’t go amiss",
            "author": "David – United Kingdom",
            "foreignLanguage": false,
            "date": "September 9, 2018",
            "date_unformatted": {},
            "languageCode": "en",
            "traveler_type": "couple",
            "reviewerName": "David",
            "reviewerCountry": "United Kingdom"
        },
        {
            "review_id": 123280,
            "rating": "2.0",
            "title": "Wenig Flughafengebäude, kein Hanger, kein imposantes ausgragendes Dach",
            "message": "Die erste Stunde war okay, es bestand noch Hoffnung auf mehr Flughafengebäude.\nLeider wurden sanierungsbedürftige Ami- Räumlichkeiten, mit stinkendem Teppichboden gezeigt, es war mehr die Führung durch ein verwaistes Verwaltungsgebäude.",
            "author": "Bernhard – Lilienthal, Germany",
            "foreignLanguage": true,
            "date": "June 3, 2014",
            "date_unformatted": {},
            "languageCode": "de",
            "traveler_type": "couple",
            "reviewerName": "Bernhard",
            "reviewerCountry": "Lilienthal, Germany"
        },
        {
            "review_id": 168823,
            "rating": "3.0",
            "title": "A great Experience for all",
            "message": "It was great to see this site and the thought behind it and we thoroughly enjoyed it. It was great seeing the damaged entrance way and the main hall along with the bunkers and the hangers.\n\nWe thought this could be greatly improved.\nOur guide had lots of pictures to show however would walk around showing them in a folder. There should be a better way of doing this - maybe a booklet you get to keep. the pictures were excellent.\nWe were disappointed that we couldn&#039;t get on the runway area due to an event being set up. There should be away around this I would think",
            "author": "Aaron – Kumeu, New Zealand",
            "foreignLanguage": false,
            "date": "August 20, 2013",
            "date_unformatted": {},
            "languageCode": "en",
            "traveler_type": "friends",
            "reviewerName": "Aaron",
            "reviewerCountry": "Kumeu, New Zealand"
        },
        {
            "review_id": 159747,
            "rating": "3.0",
            "title": "Quite boring, could&#039;ve been more exciting.",
            "message": "Good if you&#039;re super interested in airplanes or military aviation",
            "author": "a GetYourGuide customer – Berlin, Germany",
            "foreignLanguage": false,
            "date": "December 8, 2014",
            "date_unformatted": {},
            "languageCode": "en",
            "traveler_type": "friends",
            "reviewerName": "Marta",
            "reviewerCountry": "Berlin, Germany"
        },
        {
            "review_id": 3053110,
            "rating": "3.0",
            "title": "",
            "message": "Wir hatten gedacht, das wirr mehr von den bislang unbekannten Untergeschossen erfahren und auch sehen. Gerade wegen der Formulierung „Mythos“ hatten wir das erwartet und waren darum etwas enttäuscht.\nAusserdem hätten wir erwartet, das die Tour-Führerin mehr Ahnung von Luftfahrt hat. Was sind früher für Flugzeuge dort gelandet, Landebahnlänge etc.\nWas kann man noch sehen von den ehemaligen Hangars und Werkstätten.\n\nWir sind beide 64 Jahre alt. (Auswahlfeld weiter unten geht nicht)",
            "author": "Sonja – Germany",
            "foreignLanguage": true,
            "date": "July 15, 2018",
            "date_unformatted": {},
            "languageCode": "de",
            "traveler_type": "couple",
            "reviewerName": "Sonja",
            "reviewerCountry": "Germany"
        },
        {
            "review_id": 3019977,
            "rating": "3.0",
            "title": "Insgesamt leider enttäuschend",
            "message": "In einer Gruppe von über 30 Personen hat uns diese Führung wie wir finden nur oberflächlich zu den interessanten Stationen dieses Objektes geführt.\nEine Beschilderung vor Ort wäre an der Strasse förderlich und nicht erst direkt am Treffpunkt.\nAuch sollte man Interessierte vorab darüber informieren das die Führung über zwei Treppenhäuser mit je 8 und 5 Stockwerke führt, wir waren gut gerüstet aber nicht jedermann ist dafür geeignet!",
            "author": "Jörg – Germany",
            "foreignLanguage": true,
            "date": "July 11, 2018",
            "date_unformatted": {},
            "languageCode": "de",
            "traveler_type": "couple",
            "reviewerName": "Jörg",
            "reviewerCountry": "Germany"
        },
        {
            "review_id": 2699058,
            "rating": "3.0",
            "title": "nur gebäude info.",
            "message": "Diese info war nicht wie erwartet. Hätten gerne mehr über luftbrücke gehört und gelände angeschaut",
            "author": "erica – Germany",
            "foreignLanguage": true,
            "date": "May 31, 2018",
            "date_unformatted": {},
            "languageCode": "de",
            "traveler_type": "family_old",
            "reviewerName": "erica",
            "reviewerCountry": "Germany"
        },
        {
            "review_id": 2398191,
            "rating": "3.0",
            "title": "Defraudado com a limitação dos espaços a visitar.",
            "message": "Visita interessante, especialmente para que gosta de história e arquitectura. Lamentavelmente havia a decorrer um evento no Hall de partidas e chegadas e desse modo os espaços mais impressionantes não puderam ser visitados. Esta informação só foi prestada no final da visita. Se tivesse sido informado ao inicio recusaria participar.",
            "author": "Carlos – Germany",
            "foreignLanguage": true,
            "date": "April 25, 2018",
            "date_unformatted": {},
            "languageCode": "pt",
            "traveler_type": "friends",
            "reviewerName": "Carlos",
            "reviewerCountry": "Germany"
        },
        {
            "review_id": 1853090,
            "rating": "3.0",
            "title": "Soweit lohnenswert",
            "message": "Die Führung durch den Flughafen war soweit sehr interessant und aufschlussreich. Es war spannend einmal hinter die Kulissen dieses spannenden Bauwerkes zu schauen. 2 Sterne Abzug gibt es allerdings dafür, dass wie die Dachterasse im dunkeln betreten haben und leider nichts von der Aussicht hatten. Die Führund fing um 15 Uhr an, um 17 Uhr war es stockfinster. Hier hätte man evtl etwas umplanen können.\nDesweiteren hat der Tourguide 2 Infos nicht ganz korrekt erklärt. Geschichtlich dokumentiert waren die Sachen etwas anders. Auch auf Nachfrage blieb sie standhaft bei ihrer Aussage.\nPrinzipiell lohnt es sich aber sehr, diese Tour mitzumachen. Gefallen hat es uns auf jeden Fall!",
            "author": "a GetYourGuide customer – Berlin, Germany",
            "foreignLanguage": true,
            "date": "January 9, 2018",
            "date_unformatted": {},
            "languageCode": "de",
            "traveler_type": "couple",
            "reviewerName": "Ricarda",
            "reviewerCountry": "Berlin, Germany"
        },
        {
            "review_id": 926692,
            "rating": "3.0",
            "title": "War ganz okay",
            "message": "Es wird viel wissenswertes erzählt hab aber gehofft man kann mehr Räumlichkeiten sehen.",
            "author": "a GetYourGuide customer – Berlin, Germany",
            "foreignLanguage": true,
            "date": "June 9, 2017",
            "date_unformatted": {},
            "languageCode": "de",
            "traveler_type": "couple",
            "reviewerName": "Jeffrey",
            "reviewerCountry": "Berlin, Germany"
        },
        {
            "review_id": 256540,
            "rating": "3.0",
            "title": "Zu viele unstrukturierte Informationen innerhalb kurzer Zeit.",
            "message": "Unsere Flughafengebäudeerklärerin war hoch motiviert, nur leider hat sie zu viele Informationen unstrukturiert und verwirrend dargeboten. Ich hätte mir ebenfalls gewünscht, dass die Besucher der Führung mit ihrem Wissen, Wünschen und Fragen stärker einbezogen werden.",
            "author": "Sabine – Hitzhusen, Germany",
            "foreignLanguage": true,
            "date": "October 22, 2015",
            "date_unformatted": {},
            "languageCode": "de",
            "traveler_type": "family_old",
            "reviewerName": "Sabine",
            "reviewerCountry": "Hitzhusen, Germany"
        },
        {
            "review_id": 242387,
            "rating": "3.0",
            "title": "Viele Worte - wenig Fakten und Information",
            "message": "Bei der Führung durch einen Zeitzeugen erwarte ich mehr als emotionales Gescshwätz.",
            "author": "Antje – Hamburg, Germany",
            "foreignLanguage": true,
            "date": "September 14, 2015",
            "date_unformatted": {},
            "languageCode": "de",
            "traveler_type": "family_old",
            "reviewerName": "Antje",
            "reviewerCountry": "Hamburg, Germany"
        },
        {
            "review_id": 168884,
            "rating": "3.0",
            "title": "Intéressant mais visite indispensable en français",
            "message": "J&#039;ai eu le choix de faire la visite en anglais ou allemand. Mais à moins de maitriser parfaitement une de ces langues, optez pour une visite en français si vous avez des difficultés car certains thèmes techniques ou historiques sont difficiles à traduire de façon instantanée. Sinon, vraiment très intéressant pour les amoureux d&#039;aviation, d&#039;histoire et de guerre froide.",
            "author": "Eric – POITIERS, France",
            "foreignLanguage": true,
            "date": "November 26, 2014",
            "date_unformatted": {},
            "languageCode": "fr",
            "traveler_type": "solo",
            "reviewerName": "Eric",
            "reviewerCountry": "POITIERS, France"
        },
        {
            "review_id": 124279,
            "rating": "3.0",
            "title": "eine schöne Führung mit etwas wenig historischer Information",
            "message": "Die Führung hat einen schönen Einblick in den Tempelhofer Flughafen gegeben, jedoch fehlte die historische Einordnung und auch eine räumliche Orientierung innerhalb des Gebäudes. Einige im Vorhinein angekündigte Orte wurden zudem einfach gar nicht gezeigt (Vorfeld, Hangars, etc.).",
            "author": "Daniel – Berlin, Germany",
            "foreignLanguage": true,
            "date": "June 9, 2014",
            "date_unformatted": {},
            "languageCode": "de",
            "traveler_type": "couple",
            "reviewerName": "Daniel",
            "reviewerCountry": "Berlin, Germany"
        },
        {
            "review_id": 114237,
            "rating": "3.0",
            "title": "Zu viele Teilnehmende; wenig inhaltliche Details",
            "message": "Sammelort war von Ihrer Ausschreibung her ungenau, wir musssten Suchen, bis wir die große Gruppe erreicht hatten",
            "author": "a GetYourGuide customer – Berlin, Germany",
            "foreignLanguage": true,
            "date": "April 18, 2014",
            "date_unformatted": {},
            "languageCode": "de",
            "traveler_type": "friends",
            "reviewerName": "Judith",
            "reviewerCountry": "Berlin, Germany"
        },
        {
            "review_id": 77480,
            "rating": "3.0",
            "title": "War interessant, wir hätten aber gerne mehr gesehen",
            "message": "Interessant waren die persönlichen Einflüsse des Führers, der selbst lange Jahre auf dem Flughafen gearbeitet hatte.\n\nAber leider konnten wir das Gebäude nur von Ihnen besichtigen, da eine Veranstaltung war. Wir finden in dem Fall dürfte eine Führung gar nicht stattfinden, da ein wichtiger Teil der Eindrücke fehlt. Gerne hätten wir auch mal einen Blick vom Dach geworfen, da waren schließlich früher auch entsprechende Sitzgelegenheiten.",
            "author": "Kathrin – Berlin, Germany",
            "foreignLanguage": true,
            "date": "May 3, 2013",
            "date_unformatted": {},
            "languageCode": "de",
            "traveler_type": "couple",
            "reviewerName": "Kathrin",
            "reviewerCountry": "Berlin, Germany"
        }
    ]
}
